[
    {
        "name": "phone-1",
        "someText": "Title 1",
        "price": "300$",
        "imageUrl": "./img/phone-1.jpg",
        "article": 1,
        "color": "black"
    },
    {
        "name": "phone-2",
        "someText": "Title 2",
        "price": "600$",
        "imageUrl": "./img/phone-2.jpg",
        "article": 2,
        "color": "white"
    },
    {
        "name": "phone-3",
        "someText": "Title 3",
        "price": "180$",
        "imageUrl": "./img/phone-3.jpg",
        "article": 3,
        "color": "black"
    },
    {
        "name": "phone-4",
        "someText": "Title 4",
        "price": "1000$",
        "imageUrl": "./img/phone-4.jpg",
        "article": 4,
        "color": "gray"
    },
    {
        "name": "phone-5",
        "someText": "Title 5",
        "price": "200$",
        "imageUrl": "./img/phone-5.jpg",
        "article": 5,
        "color": "blue"
    },
    {
        "name": "phone-6",
        "someText": "Title 6",
        "price": "250$",
        "imageUrl": "./img/phone-6.jpg",
        "article": 6,
        "color": "gray"
    },
    {
        "name": "phone-7",
        "someText": "Title 7",
        "price": "450$",
        "imageUrl": "./img/phone-7.jpg",
        "article": 7,
        "color": "gray"
    },
    {
        "name": "phone-8",
        "someText": "Title 8",
        "price": "400$",
        "imageUrl": "./img/phone-8.jpg",
        "article": 8,
        "color": "green"
    },
    {
        "name": "phone-9",
        "someText": "Title 9",
        "price": "1200$",
        "imageUrl": "./img/phone-9.jpg",
        "article": 9,
        "color": "black"
    },
    {
        "name": "phone-10",
        "someText": "Title 10",
        "price": "250$",
        "imageUrl": "./img/phone-10.jpg",
        "article": 10,
        "color": "gray"
    }
]